{
  "kind": "collectionType",
  "collectionName": "up_users",
  "info": {
    "name": "user",
    "description": "",
    "singularName": "user",
    "pluralName": "users",
    "displayName": "User"
  },
  "options": {
    "draftAndPublish": true
  },
  "attributes": {
    "username": {
      "type": "string",
      "minLength": 3,
      "unique": true,
      "configurable": false,
      "required": true
    },
    "provider": {
      "type": "string",
      "configurable": false
    },
    "resetPasswordToken": {
      "type": "string",
      "configurable": false,
      "private": true,
      "searchable": false
    },
    "confirmationToken": {
      "type": "string",
      "configurable": false,
      "private": true,
      "searchable": false
    },
    "confirmed": {
      "type": "boolean",
      "default": false,
      "configurable": false
    },
    "blocked": {
      "type": "boolean",
      "default": false,
      "configurable": false
    },
    "num": {
      "type": "uid",
      "required": true
    },
    "nombrePila": {
      "type": "string",
      "required": true
    },
    "apPaterno": {
      "type": "string",
      "required": true
    },
    "apMaterno": {
      "type": "string",
      "required": true
    },
    "numTel": {
      "type": "string",
      "required": true,
      "unique": true
    },
    "email": {
      "type": "email",
      "minLength": 6,
      "required": true
    },
    "password": {
      "type": "password",
      "minLength": 6,
      "private": true,
      "searchable": false
    },
    "role": {
      "type": "relation",
      "relation": "manyToOne",
      "target": "plugin::users-permissions.role",
      "inversedBy": "users"
    },
    "usuarios_vehiculos": {
      "type": "relation",
      "relation": "manyToMany",
      "target": "api::vehiculo.vehiculo",
      "inversedBy": "vehiculos_usuarios"
    },
    "rutas_users": {
      "type": "relation",
      "relation": "manyToMany",
      "target": "api::ruta.ruta",
      "inversedBy": "users_rutas"
    }
  }
}
