{
  "kind": "collectionType",
  "collectionName": "rutas",
  "info": {
    "singularName": "ruta",
    "pluralName": "rutas",
    "displayName": "rutas",
    "description": ""
  },
  "options": {
    "draftAndPublish": true
  },
  "pluginOptions": {},
  "attributes": {
    "num": {
      "type": "uid",
      "required": true
    },
    "fechaHoraInicio": {
      "type": "datetime",
      "required": true
    },
    "fechaHoraFin": {
      "type": "datetime",
      "required": true
    },
    "comentarios": {
      "type": "text",
      "default": "Sin comentarios",
      "required": false
    },
    "finalizado": {
      "type": "boolean",
      "default": false,
      "required": true
    },
    "paradas_rutas": {
      "type": "relation",
      "relation": "manyToMany",
      "target": "api::parada.parada",
      "inversedBy": "rutas_paradas"
    },
    "users_rutas": {
      "type": "relation",
      "relation": "manyToMany",
      "target": "plugin::users-permissions.user",
      "mappedBy": "rutas_users"
    }
  }
}
